<?xml version="1.0" encoding="UTF-8"?>
<svg width="505px" height="450px" viewBox="0 0 505 450" version="1.1" xmlns="http://www.w3.org/2000/svg" xmlns:xlink="http://www.w3.org/1999/xlink">
    <title>заказчик</title>
    <g id="Design" stroke="none" stroke-width="1" fill="none" fill-rule="evenodd">
        <g id="Главная-XL" transform="translate(0.000000, -574.000000)" fill-rule="nonzero">
            <g id="заказчик" transform="translate(252.500000, 799.000000) scale(-1, 1) translate(-252.500000, -799.000000) translate(0.000000, 574.000000)">
                <path d="M389.255707,208.413919 L435.86319,191.827838 C433.881579,189.033767 407.763951,128.416297 383.191978,116.328472 C361.731135,102.14014 321.880945,104.755866 276.838935,107.906627 C262.39109,108.626267 248.143858,111.594719 234.610812,116.704978 C183.841947,136.877774 176.589252,203.757134 176.589252,203.757134 L223.295815,219.867628 C223.295815,219.867628 215.706246,310.724477 208.552632,358.223684 C208.552632,358.223684 267.069594,392.683893 394.645688,371.559924 C394.645688,371.639188 389.473684,221.849239 389.255707,208.413919 Z" id="Path" fill="#F29130"></path>
                <polygon id="Path" fill-opacity="0.2" fill="#FFFFFF" points="274.262841 145.993183 295.505707 248.977489 331.11525 130.08085"></polygon>
                <path d="M295.505707,249.968294 L295.505707,249.968294 C295.052474,249.943224 294.671563,249.619044 294.57435,249.17565 L273.331484,146.131896 C273.228387,145.626678 273.530014,145.126839 274.025048,144.982562 L330.877457,129.129677 C331.223844,129.028435 331.597803,129.127649 331.848446,129.387286 C332.109416,129.637383 332.202112,130.015891 332.08624,130.358275 L296.417248,249.254914 C296.298328,249.663922 295.931307,249.951156 295.505707,249.968294 Z M275.412175,146.706563 L295.684052,244.954819 L329.648859,131.507609 L275.412175,146.706563 Z" id="Shape" fill="#231F20"></path>
                <path d="M320.592898,5.0412175 C316.629677,4.48636652 313.954502,5.9527584 310.367787,6.82466709 C305.651554,7.97400127 306.979233,8.09289791 302.778218,5.37809131 C292.870165,-0.963062777 279.989696,1.89045656 268.952124,5.77441344 C257.914553,9.65837032 246.163602,14.3944198 234.927869,11.1842105 C238.797219,15.4344862 244.171734,18.0079974 249.908846,18.3576411 C240.67454,23.7476221 227.23922,19.5862397 219.550571,27.0370958 C226.885965,36.2897806 235.058326,44.8468794 243.964014,52.5998732 C237.328009,51.5600142 230.879274,49.5573014 224.821655,46.6550412 C236.047358,58.9088811 249.780955,68.6007996 265.087984,75.071338 C276.264268,79.9857324 288.371909,83.5129994 300.558814,82.700539 C320.156944,81.3728599 340.191027,65.9757451 341.736684,45.7435003 C342.786937,31.9316741 337.535669,7.39933418 320.592898,5.0412175 Z" id="Path" fill="#FFFFFF"></path>
                <path d="M296.991915,83.8696893 C287.242391,83.8696893 276.640774,81.2935954 264.691661,75.9432467 C249.250531,69.4294229 235.399857,59.6548625 224.088459,47.2891566 C223.771567,46.9402985 223.744272,46.4164986 224.02319,46.0365936 C224.302107,45.6566886 224.810033,45.5258354 225.237793,45.7236842 C230.168402,48.0409157 235.356995,49.7637948 240.694356,50.8560558 C232.75686,43.6862217 225.426307,35.8718258 218.777743,27.4928662 C218.437383,27.1157468 218.437383,26.5423065 218.777743,26.1651871 C223.256183,21.8254597 229.537888,21.2111604 235.621433,20.6166772 C239.247483,20.3802045 242.832757,19.7150332 246.302315,18.6350666 C241.599137,17.6357628 237.333034,15.1732154 234.115409,11.6003488 C233.847624,11.2566324 233.847624,10.7749148 234.115409,10.4311985 C234.342043,10.0491549 234.799036,9.86962186 235.225111,9.99524413 C245.331325,12.8685796 255.932942,9.10351934 266.197685,5.45735574 L268.654883,4.60526316 C278.404407,1.15726062 292.632372,-2.58798351 303.333069,4.30802156 L304.918358,5.35827521 C306.622543,6.52742549 306.602727,6.50760938 308.881579,5.9527584 L310.229074,5.61588459 C311.160431,5.39790742 312.03234,5.14029803 312.884432,4.86287254 C315.408497,3.899337 318.122976,3.53966845 320.810875,3.8126189 L320.810875,3.8126189 C337.73383,6.42834496 343.896639,30.42565 342.707673,45.8822131 C341.04312,67.6799302 319.56246,82.4627457 300.618263,83.7507926 C299.429296,83.8300571 298.200698,83.8696893 296.991915,83.8696893 Z M228.76506,49.4887445 C239.308146,60.0076529 251.773774,68.4032839 265.484306,74.2192454 C278.6422,80.0055485 290.09591,82.4627457 300.47955,81.769182 C323.763475,80.1838935 339.497464,61.8341788 340.745878,45.7435003 C341.875396,31.0201332 336.20799,8.21179455 320.454185,5.9527584 L320.454185,5.9527584 C318.044391,5.71771224 315.613201,6.05726385 313.360019,6.94356373 C312.48811,7.22098922 311.556753,7.49841471 310.585764,7.73620799 L309.277901,8.05326569 C306.38475,8.78646164 306.087508,8.74682942 303.78884,7.18135701 L302.243183,6.15091947 C292.33513,-0.269499049 278.662016,3.35684845 269.288998,6.64632213 L266.831801,7.51823082 C257.458782,10.8473367 247.768706,14.2755231 238.217343,12.8487635 C241.584289,15.505079 245.686711,17.0616473 249.968294,17.3073874 C250.405021,17.3297311 250.775455,17.6357414 250.879835,18.0603995 C250.988316,18.4896339 250.79271,18.9378986 250.404249,19.1502854 C246.064521,21.686747 240.892517,22.2019658 235.879042,22.6775523 C230.211636,23.2522194 224.841471,23.7674382 220.898066,27.076728 C228.074602,36.0098315 236.032481,44.2860262 244.677394,51.8072289 C245.012353,52.088575 245.117829,52.5591616 244.935003,52.9565631 C244.753306,53.3618783 244.32407,53.5967437 243.88475,53.5312302 C238.710885,52.7469332 233.639982,51.3911478 228.76506,49.4887445 L228.76506,49.4887445 Z" id="Shape" fill="#231F20"></path>
                <path d="M275.669784,111.830216 L274.262841,145.993183 C274.262841,145.993183 288.015219,165.313887 309.099556,156.376823 C330.183893,147.439759 331.11525,130.08085 331.11525,130.08085 L324.338142,64.9651237 C324.338142,64.9651237 306.622543,59.0202917 305.572289,22.8360812 C288.893655,33.5209257 269.64544,39.5171693 249.849398,40.1949905 C249.849398,40.1949905 246.203234,80.1838935 251.672479,96.7501585 C257.141725,113.316424 275.669784,111.830216 275.669784,111.830216 Z" id="Path" fill="#FFFFFF"></path>
                <path d="M298.121433,159.705929 C283.02156,159.705929 273.569277,146.726379 273.45038,146.56785 C273.323255,146.389105 273.260394,146.172584 273.272036,145.953551 L274.639347,112.860653 C270.438332,112.860653 255.576252,111.770767 250.721306,97.0077679 C245.271877,80.4415029 248.739696,41.7010146 248.858592,40.0760938 C248.89847,39.574934 249.307363,39.1830786 249.809765,39.1645529 C269.405657,38.4608492 288.458062,32.5364748 304.997622,22.0038047 C305.291274,21.7764106 305.688913,21.7364447 306.021944,21.9008524 C306.354975,22.06526 306.565048,22.405236 306.563094,22.7766328 C307.098129,41.0668992 312.012524,51.2920101 316.035193,56.6819911 C318.1991,59.8498231 321.176886,62.3758068 324.6552,63.9941344 C325.023265,64.1158614 325.286527,64.4410673 325.328947,64.8264109 L332.006975,129.981769 C332.006975,130.318643 330.818009,148.212587 309.416614,157.288364 C305.852671,158.846314 302.010842,159.6686 298.121433,159.705929 L298.121433,159.705929 Z M275.273462,145.735574 C277.037096,148.073874 289.719404,163.57007 308.72305,155.504914 C328.994927,146.904724 330.104629,130.239379 330.124445,130.061034 L323.426601,65.6983196 C320.236208,64.291376 306.067692,56.285669 304.640932,24.6789791 C288.342211,34.5909901 269.816087,40.253075 250.760938,41.1461636 C250.265536,47.0909956 247.729074,81.590837 252.603836,96.4331008 C257.756024,112.048193 274.857324,110.898859 275.610336,110.83941 C275.889233,110.821549 276.162703,110.922301 276.363348,111.116836 C276.56513,111.314065 276.673251,111.58797 276.66059,111.869848 L275.273462,145.735574 Z" id="Shape" fill="#231F20"></path>
                <path d="M315.163285,82.1655041 C319.734012,83.3081362 324.571181,82.5957402 328.618421,80.1838935 C334.216357,76.5944471 337.536443,70.3448725 337.37714,63.6968928 C337.512788,61.2796475 337.106568,58.8626383 336.188174,56.6225428 C335.228138,54.3716556 333.342679,52.6451239 331.01617,51.8864933 C328.12203,51.4149943 325.153031,51.8947622 322.554692,53.2538047 C318.591471,54.8390932 318.29423,57.038681 315.777584,60.0507292 C316.05501,59.7931198 316.312619,58.9608434 316.570228,58.703234" id="Path" fill="#FFFFFF"></path>
                <path d="M319.542644,83.7111606 C317.984499,83.7111606 316.432773,83.5115457 314.925491,83.1166772 C314.571511,83.0281821 314.291631,82.7575628 314.191279,82.4067589 C314.090928,82.0559551 314.185351,81.6782622 314.438981,81.4159536 C314.69261,81.1536449 315.066913,81.0465714 315.420894,81.1350666 C319.722119,82.2461425 324.289107,81.5896379 328.103202,79.3119848 C333.422122,75.9107296 336.566437,69.9681245 336.386335,63.6572606 C336.524729,61.3889361 336.145252,59.1188529 335.276633,57.0188649 C334.435301,55.0333671 332.783118,53.5038361 330.738744,52.8178503 C328.340996,52.1441027 325.784718,53.0358275 322.931198,54.1455295 C320.97518,54.8593023 319.351963,56.2707953 318.373494,58.1087508 C317.840192,58.936945 317.264769,59.7372456 316.649493,60.5064997 L316.471148,60.7046607 C316.090846,61.0605385 315.499935,61.0612127 315.118822,60.7062037 C314.737709,60.3511947 314.696526,59.7617196 315.024572,59.3571655 L315.024572,59.3571655 C315.024572,59.3571655 315.163285,59.0995561 315.222733,58.9608434 C315.366011,58.6126189 315.56699,58.2910518 315.817216,58.0096703 C315.930241,57.9121866 316.05713,57.8320463 316.193722,57.771877 L316.669309,57.0981294 C317.860579,54.9062564 319.802497,53.2176321 322.138554,52.3422638 C324.93427,50.9107913 328.118667,50.424093 331.214331,50.9551363 C333.820296,51.7909021 335.937422,53.7129344 337.02045,56.2262207 C338.017468,58.6054698 338.458015,61.1809742 338.308497,63.7563412 C338.471502,70.7418655 334.968806,77.3037838 329.074192,81.0558022 C326.194488,82.784007 322.90111,83.7014968 319.542644,83.7111606 L319.542644,83.7111606 Z" id="Path" fill="#231F20"></path>
                <path d="M274.936588,129.882689 C282.858177,130.094099 290.374982,126.387587 295.03012,119.974635 C303.17454,109.055961 301.133481,101.347495 301.133481,101.347495 C301.133481,101.347495 290.55168,112.385067 275.669784,111.869848 L274.936588,129.882689 Z" id="Path" fill="#231F20"></path>
                <path d="M275.907578,130.814046 C275.293278,130.814046 274.936588,130.814046 274.837508,130.814046 C274.313753,130.761943 273.922144,130.309418 273.945783,129.783608 L274.698795,111.830216 C274.698281,111.567303 274.806612,111.315903 274.998066,111.135712 C275.18952,110.95552 275.447017,110.86261 275.709417,110.879042 C289.977013,111.314997 300.301205,100.772828 300.420101,100.673748 C300.664838,100.418001 301.027423,100.312247 301.371275,100.396322 C301.717175,100.493485 301.987492,100.763801 302.084654,101.109702 C302.084654,101.42676 304.066265,109.392834 295.822765,120.569119 C291.178337,126.941679 283.792685,130.741065 275.907578,130.814046 Z M276.620958,112.840837 L275.967026,128.832435 C283.199673,128.673214 289.94899,125.16679 294.237476,119.34052 C299.706722,112.028377 300.400285,106.202441 300.360653,103.388554 C293.823548,109.211951 285.450373,112.557013 276.700222,112.840837 L276.620958,112.840837 Z" id="Shape" fill="#231F20"></path>
                <path d="M278.503488,57.6133481 C278.503488,57.6133481 269.170101,76.3593849 272.301046,79.0147432 C275.431991,81.6701015 282.863031,78.6778694 282.863031,78.6778694" id="Path" fill="#FFFFFF"></path>
                <path d="M276.04629,81.0954344 C274.450377,81.1893894 272.872209,80.719446 271.587666,79.7677552 C268.119848,76.8349715 275.273462,61.7350983 277.532498,57.1575777 C277.787108,56.6804067 278.372261,56.4882668 278.860178,56.7216233 C279.097016,56.8368834 279.278214,57.0417036 279.363734,57.2908294 C279.449255,57.5399551 279.43206,57.8128803 279.315948,58.0493025 C274.976221,66.7683893 271.389505,76.9736842 272.855897,78.241915 C275.055485,80.104629 280.504914,78.5193405 282.427077,77.7465124 C282.935775,77.5549811 283.504851,77.8001217 283.715124,78.3013633 C283.812598,78.5457267 283.808884,78.8188241 283.704801,79.0604465 C283.600718,79.3020689 283.404811,79.4923756 283.160273,79.5894103 C280.89154,80.4913169 278.485878,81.0005936 276.04629,81.0954344 L276.04629,81.0954344 Z" id="Path" fill="#231F20"></path>
                <ellipse id="Oval" fill="#231F20" transform="translate(292.189889, 54.546911) rotate(-12.230000) translate(-292.189889, -54.546911) " cx="292.189889" cy="54.5469113" rx="2.87333545" ry="4.06230184"></ellipse>
                <ellipse id="Oval" fill="#231F20" transform="translate(267.474437, 57.307387) rotate(-84.857235) translate(-267.474437, -57.307387) " cx="267.474437" cy="57.3073874" rx="4.07872098" ry="2.88494899"></ellipse>
                <path d="M277.334337,104.716233 C275.024675,104.797611 272.764114,104.037048 270.973367,102.576094 C265.20688,97.4437223 265.761731,87.357324 265.781547,86.9411858 C265.807057,86.4600242 266.175019,86.0669735 266.653456,86.0098288 C292.731452,82.9581484 292.989062,83.1959417 293.4052,83.5724477 C293.617448,83.7655918 293.739537,84.0384973 293.742291,84.3254597 L293.742291,84.3254597 C293.758759,88.3409902 292.814315,92.3022182 290.987635,95.8782498 C288.744889,100.332683 284.580833,103.510516 279.692454,104.498256 C278.914185,104.638879 278.125196,104.71181 277.334337,104.716233 Z M267.743342,87.8923589 C267.743342,90.2901078 268.119848,97.3842739 272.241598,101.07007 C274.263689,102.604485 276.867824,103.150044 279.335764,102.556278 C283.625986,101.676229 287.276821,98.879689 289.243817,94.9667089 C290.770578,91.9717422 291.616427,88.6763133 291.720831,85.3162651 C288.292644,85.5540583 276.04629,86.9213697 267.743342,87.8923589 Z" id="Shape" fill="#231F20"></path>
                <path d="M290.115726,95.4422955 C285.419309,104.201015 275.709417,105.350349 271.627299,101.842898 C272.974794,98.4345276 275.154566,94.986525 278.701649,94.0155358 C282.555092,93.12138 286.600951,93.6271123 290.115726,95.4422955 Z" id="Path" fill="#231F20"></path>
                <path d="M277.334337,104.716233 C275.025992,104.788628 272.768494,104.029096 270.973367,102.576094 C270.660058,102.30721 270.555988,101.86691 270.715758,101.486208 C272.53884,96.8096068 275.154566,93.9759036 278.444039,93.0643627 C282.522881,92.1260395 286.801804,92.6521366 290.531864,94.5505707 C290.783651,94.6515451 290.974094,94.863962 291.047083,95.1252378 C291.156453,95.3712388 291.156453,95.652065 291.047083,95.8980659 C288.804338,100.352499 284.640281,103.530332 279.751902,104.518072 C278.953496,104.655514 278.144468,104.721828 277.334337,104.716233 Z M272.816265,101.52584 C274.780454,102.682153 277.107816,103.057077 279.335764,102.576094 C283.266212,101.781069 286.673687,99.3533331 288.708782,95.8980659 C285.645819,94.5389842 282.224138,94.2121162 278.959258,94.9667089 C276.521877,95.6602727 274.381737,97.8598605 272.816265,101.52584 Z" id="Shape" fill="#231F20"></path>
                <path d="M237.959734,143.456722 C238.197527,145.537413 223.295815,219.867628 223.295815,219.867628" id="Path" fill="#231F20"></path>
                <path d="M223.295815,220.838618 L223.018389,220.838618 C222.759685,220.795978 222.530056,220.648439 222.383752,220.430859 C222.237448,220.213279 222.187447,219.944956 222.245561,219.689283 C228.190393,190.282181 236.90948,145.75539 236.90948,143.535986 C236.876116,143.277118 236.950595,143.015914 237.115468,142.813571 C237.28034,142.611228 237.521117,142.485526 237.781389,142.465916 C238.326064,142.419476 238.808939,142.814555 238.871275,143.357641 C239.089252,145.497781 226.664553,207.641091 224.167724,220.065789 C224.08733,220.492088 223.728681,220.809981 223.295815,220.838618 Z" id="Path" fill="#231F20"></path>
                <rect id="Rectangle" fill="#231F20" transform="translate(334.034106, 92.209005) rotate(5.730000) translate(-334.034106, -92.209005) " x="310.700641" y="48.2370643" width="46.6669309" height="87.9438808" rx="6.59876347"></rect>
                <path d="M346.94832,138.700856 L346.175491,138.700856 L312.884432,135.351934 C308.715331,134.934913 305.672874,131.218325 306.087508,127.048985 L313.55818,52.5998732 C313.985578,48.4363451 317.695203,45.3995869 321.861129,45.8029486 L355.152188,49.1518706 C357.158117,49.3519868 359.002021,50.3419178 360.277139,51.9032867 C361.552257,53.4646556 362.153816,55.4691691 361.949112,57.4746354 L354.47844,131.864299 C354.092347,135.73668 350.839884,138.689574 346.94832,138.700856 L346.94832,138.700856 Z M321.187381,47.784474 C319.892727,47.7773583 318.636898,48.2263698 317.640298,49.0527901 C316.506246,50.0035375 315.793963,51.3639993 315.658687,52.8376665 L308.188015,127.207514 C307.888506,130.291661 310.138481,133.037693 313.221306,133.350507 L346.512365,136.699429 L346.512365,136.699429 C347.994852,136.848674 349.475789,136.401821 350.628307,135.4575 C351.780825,134.513179 352.510168,133.149027 352.655358,131.666138 L360.12603,57.3161065 C360.42593,54.2280126 358.178508,51.4762474 355.092739,51.1532974 L321.80168,47.8043754 L321.187381,47.784474 Z" id="Shape" fill="#231F20"></path>
                <path d="M435.86319,191.827838 C435.86319,191.827838 449.556119,220.501744 452.191661,231.757292 C460.375713,266.63364 429.066265,312.725904 391.138237,289.541059 C378.693722,281.95149 370.351141,269.031389 364.822448,255.556436 C353.031864,226.842898 347.126665,195.038047 345.006341,164.164553 C344.035352,150.293278 346.611446,126.751744 329.510146,120.925808 C324.001268,118.944198 317.620482,125.027743 316.332435,122.530913 C314.172479,118.230818 321.80168,108.14442 333.830057,113.653297 C333.830057,113.653297 325.46766,105.033291 316.86747,107.470672 C308.26728,109.908053 311.953075,101.307863 317.402505,99.3857007 C322.336715,97.6418833 333.830057,99.1280913 337.852727,107.193247 C337.852727,107.193247 334.06785,94.5902029 327.389822,93.2030755 C320.711795,91.815948 318.492391,90.0324984 318.888713,88.0310717 C319.56246,84.5236208 325.725269,85.3360812 329.371433,86.049461 C333.017597,86.7628408 342.707673,92.1330057 345.224318,99.1479074 C345.224318,99.1479074 341.974477,88.0508878 333.790425,82.8987001 C328.677869,79.6686747 324.496671,80.104629 325.566741,78.4400761 C326.63681,76.7755231 332.581642,72.4952441 340.111763,77.9843056 C347.641883,83.4733672 357.609385,101.030438 357.609385,101.030438 C357.609385,101.030438 357.609385,88.9029803 358.679455,89.1407736 C364.445942,90.5873494 367.438174,104.696417 368.230818,109.254122 C370.093532,120.0539 373.561351,127.58402 378.574826,137.650602 C387.908212,156.456088 399.005231,182.791693 407.367628,201.9935" id="Path" fill="#FFFFFF"></path>
                <path d="M411.628091,296.793754 C404.1688,296.646385 396.896957,294.430531 390.623018,290.393152 C379.486367,283.596227 370.50967,272.003805 363.910907,255.932942 C353.091313,229.636969 346.393469,198.783291 343.99572,164.243817 C343.837191,162.004597 343.777743,159.5474 343.698478,156.95149 C343.341788,143.397273 342.905834,126.553583 329.173272,121.857166 C326.53773,120.965441 323.525682,122.154407 321.088301,123.10558 C318.650919,124.056753 316.391883,124.948478 315.420894,122.986684 C314.449905,121.024889 315.222733,117.45799 317.739379,114.86208 C320.725234,111.862697 324.979499,110.49631 329.153456,111.1961 C326.081959,109.21449 321.583703,107.232879 317.105263,108.421845 C312.626823,109.610812 311.160431,108.005707 310.883006,106.876189 C310.011097,104.161382 313.181674,99.821655 317.045815,98.4543437 C323.078137,96.9192787 329.48042,98.1228789 334.543437,101.743817 C332.859068,98.4543437 330.342422,94.8279962 327.152029,94.1740647 C322.832118,93.2625238 317.243976,91.637603 317.897907,87.8329106 C318.809448,83.0175967 326.89442,84.563253 329.529962,85.0586557 C333.406433,86.2034988 336.993832,88.1627183 340.052315,90.8053266 C338.276438,87.9832811 335.926925,85.5662535 333.156309,83.7111604 C331.298092,82.5821109 329.299304,81.702644 327.211477,81.0954344 C325.685637,80.6000317 324.675016,80.282974 324.357958,79.3912492 C324.194751,78.8771536 324.290764,78.3158452 324.615568,77.8852251 C326.101988,76.0395639 328.220265,74.8109635 330.560399,74.4372226 C334.100395,73.9196323 337.695093,74.911769 340.468453,77.1718453 C346.215124,81.392676 353.170577,92.1330057 356.321338,97.4437223 C356.499683,89.2794864 357.292327,88.6651871 357.609385,88.4075777 C357.902511,88.2176933 358.254437,88.1402694 358.60019,88.1896005 C365.040425,89.8145212 368.092105,104.597337 368.864933,109.095593 C370.707831,119.776474 374.116202,127.167882 379.10986,137.234464 C386.639981,152.393786 395.220355,172.229708 402.770292,189.707514 L407.942295,201.597178 C408.048284,201.838834 408.053497,202.112785 407.95678,202.358298 C407.860063,202.603811 407.669406,202.800602 407.427077,202.905041 C406.923518,203.114263 406.34478,202.886275 406.119214,202.389822 L400.967026,190.500159 C393.417089,173.022353 384.856531,153.245878 377.346227,138.106373 C372.273304,127.901078 368.805485,120.390774 366.922955,109.432467 C365.555644,101.644737 362.662492,92.2915346 358.798351,90.3693722 C358.386107,93.9008229 358.207374,97.4556306 358.263316,101.010621 C358.250283,101.451403 357.94751,101.830521 357.520524,101.940711 C357.093539,102.0509 356.64512,101.865638 356.420419,101.486208 C356.321338,101.327679 346.512365,84.1074826 339.180406,78.7769499 C336.888034,76.8761225 333.911466,76.0082558 330.956722,76.379201 C329.245171,76.6683209 327.669871,77.4941392 326.458465,78.7373177 L327.825777,79.2129042 C330.064756,79.8728589 332.209348,80.8186108 334.206563,82.0267914 C342.608592,87.3176918 345.917882,98.3750793 346.096227,98.8308497 C346.265861,99.3780564 345.959778,99.9591706 345.412571,100.128805 C344.865365,100.298439 344.28425,99.9923557 344.114616,99.445149 C341.815948,92.8067533 332.44293,87.5554851 329.113824,87.0204502 C323.446417,85.9305644 320.137127,86.3467026 319.780438,88.2094166 C319.483196,89.7154407 322.237635,91.1223843 327.508719,92.1726379 C334.701966,93.6588459 338.566107,106.321338 338.724635,106.856373 C338.829901,107.332828 338.572606,107.814995 338.11821,107.992802 C337.663814,108.170609 337.147609,107.991117 336.901554,107.569753 C333.176126,100.118897 322.316899,98.6128725 317.660114,100.257609 C314.548985,101.367311 312.270133,104.83513 312.706088,106.202441 C312.943881,106.935637 314.410273,107.034718 316.51078,106.440235 C325.586557,103.883957 334.087666,112.523779 334.464172,112.880469 C334.762432,113.250605 334.762432,113.778565 334.464172,114.1487 C334.197664,114.541237 333.686507,114.683691 333.25539,114.485574 C325.150602,110.760146 320.315472,114.822448 319.007609,116.169943 C317.144895,118.151554 316.312619,120.549302 317.025999,122.015694 C317.402505,122.273304 319.166138,121.57974 320.216392,121.163602 C322.792486,120.15298 326.339569,118.785669 329.648859,119.915187 C344.689283,125.047559 345.16487,142.664077 345.501744,156.812777 C345.501744,159.388871 345.640457,161.826252 345.798985,164.02584 C348.176918,198.347337 354.83513,229.002854 365.615092,255.17993 C372.055327,270.854471 380.774413,282.129835 391.534559,288.708782 C405.108592,296.991915 419.138396,296.81357 431.02806,288.193564 C446.980025,276.66059 455.798193,251.969721 451.101776,231.975269 C448.525682,220.957514 434.971465,192.541218 434.852568,192.343056 C434.696817,192.024474 434.722858,191.646999 434.920883,191.352823 C435.118908,191.058647 435.458831,190.892462 435.812608,190.916868 C436.166384,190.941275 436.480266,191.152565 436.636018,191.471148 C437.190869,192.660114 450.408212,220.363031 453.043754,231.598763 C457.977964,252.643469 449.080533,277.710843 432.19721,289.877933 C426.248788,294.308192 419.044755,296.730357 411.628091,296.793754 Z" id="Path" fill="#231F20"></path>
                <circle id="Oval" fill="#FFFFFF" cx="337.396956" cy="61.3189601" r="3.70561192"></circle>
                <path d="M337.396956,66.0352353 C335.487635,66.0432158 333.761853,64.8992428 333.025622,63.1375575 C332.289391,61.3758721 332.687986,59.3440944 334.035246,57.9911493 C335.382507,56.6382041 337.412588,56.2310579 339.177358,56.9598649 C340.942127,57.6886719 342.093373,59.4096221 342.093373,61.3189601 C342.082617,63.9114798 339.989408,66.0135208 337.396956,66.0352353 Z M337.396956,58.6041535 C336.287339,58.5961415 335.282886,59.2594562 334.854544,60.2830959 C334.426202,61.3067357 334.658903,62.4877367 335.443541,63.2723751 C336.22818,64.0570135 337.409181,64.2897139 338.43282,63.8613723 C339.45646,63.4330308 340.119775,62.4285774 340.111763,61.3189601 C340.127758,60.5887043 339.848811,59.8828112 339.337942,59.3607554 C338.827073,58.8386995 338.127387,58.54453 337.396956,58.5447051 L337.396956,58.6041535 Z" id="Shape" fill="#231F20"></path>
                <path d="M423.933893,242.359042 C423.538675,242.360286 423.180439,242.126653 423.022353,241.764426 L404.751902,198.743659 C404.597329,198.41506 404.634901,198.028231 404.849819,197.73552 C405.064738,197.442809 405.422564,197.291122 405.782371,197.340199 C406.142178,197.389277 406.446309,197.631254 406.574984,197.970831 L424.845434,240.991598 C425.053057,241.489612 424.824021,242.062202 424.330216,242.279645 C424.205312,242.334153 424.070154,242.361184 423.933893,242.359042 Z" id="Path" fill="#231F20"></path>
                <path d="M176.589252,203.757134 L166.899176,251.850824 L133.509036,212.595117 C133.509036,212.595117 127.782181,203.043754 124.116202,201.656627 C119.756658,200.031706 101.743817,198.94182 95.7395371,194.027425 C89.7352568,189.113031 86.4655992,188.082594 85.8314838,191.847654 C85.1973684,195.612714 101.684369,205.481135 101.684369,205.481135 C101.684369,205.481135 88.5661065,209.305644 85.8314838,208.215758 C83.0968611,207.125872 76.3990171,192.977172 73.6643944,192.977172 C72.2574509,192.977172 69.304851,195.969404 72.0592898,202.191661 C69.7011731,196.246829 66.332435,189.548985 63.4789157,189.548985 C60.6253963,189.548985 60.7641091,194.56246 62.5475587,201.240488 C62.5475587,201.240488 55.354312,189.529169 52.6395054,196.742232 C50.0634115,203.360812 69.0076094,226.763633 73.3671528,227.853519 C77.7266963,228.943405 106.658212,220.204502 106.658212,220.204502 C106.658212,220.204502 141.772353,320.414553 192.739379,333.493183 C205.421687,336.743025 223.295815,219.867628 223.295815,219.867628 L176.589252,203.757134 Z" id="Path" fill="#FFFFFF"></path>
                <path d="M193.29423,334.543437 C193.026575,334.549675 192.759469,334.516287 192.501585,334.444356 C171.10019,328.955295 149.976221,308.088935 129.743976,272.439759 C120.562174,256.071616 112.658459,239.018671 106.103361,221.433101 C100.594483,223.077838 77.3700063,229.83513 73.1888079,228.804692 C69.4633798,227.893152 58.703234,215.091947 53.9870006,205.976538 C51.7081484,201.577362 50.9749524,198.426601 51.7675967,196.385542 C52.1443177,194.840361 53.4082541,193.67005 54.977806,193.413126 C56.9594166,193.254597 59.0599239,195.018231 60.7046607,196.880945 C60.1299937,193.353678 60.3479708,190.936113 61.3189601,189.648066 C61.8616167,188.94253 62.707958,188.537758 63.5978123,188.55818 L63.5978123,188.55818 C65.579423,188.55818 67.8979074,190.916297 70.2956563,195.53345 C70.450674,194.911924 70.7121461,194.321936 71.0684845,193.789632 C71.6248256,192.781443 72.6382598,192.108286 73.7832911,191.986367 C75.7649017,191.986367 77.865409,195.216392 81.2341471,200.487476 C82.9779645,203.202283 85.3558973,206.907895 86.3070704,207.284401 C87.7536462,207.878884 94.233513,206.511573 99.3262524,205.144261 C94.1740647,201.914236 84.4641725,195.236208 84.9793912,191.708941 C85.0101278,190.423314 85.7828815,189.271911 86.9610019,188.756341 C88.9426126,188.003329 91.6970514,189.350824 96.472733,193.254597 C100.317058,196.405358 109.749524,197.970831 116.645529,199.199429 C119.323276,199.549983 121.972283,200.093029 124.571972,200.82435 C128.436113,202.290742 133.84591,211.168358 134.480025,212.178979 L166.443405,249.829581 L175.737159,203.737318 C175.794987,203.456323 175.96734,203.212157 176.212746,203.06357 C176.4726,202.954577 176.765352,202.954577 177.025206,203.06357 L223.731769,219.174065 C224.184747,219.331273 224.460154,219.790284 224.385701,220.263951 C223.731769,224.564046 208.136493,325.745086 195.434369,334.127299 C194.780563,334.482252 194.033406,334.627533 193.29423,334.543437 Z M106.678028,219.213697 C107.102347,219.210649 107.479499,219.483482 107.609385,219.887445 C107.966075,220.87825 143.139664,319.740805 192.996988,332.54201 C193.439436,332.623009 193.895221,332.507254 194.245403,332.224952 C203.757134,325.943247 216.617787,256.923748 222.205929,220.52156 L177.342264,205.064997 L167.889981,252.048985 C167.819036,252.424484 167.530258,252.721067 167.156785,252.801997 C166.792769,252.907798 166.400947,252.782415 166.16598,252.48494 L132.77584,213.229233 C131.131103,210.534242 126.513951,203.618421 123.779328,202.587984 C121.307237,201.907337 118.79126,201.39752 116.249207,201.062143 C108.738903,199.813729 99.3857007,198.268072 95.1252378,194.780438 C89.9928662,190.579423 88.2094166,190.361446 87.5951173,190.599239 C86.980818,190.837032 87.0006341,191.431516 86.9213697,191.986367 C86.6439442,193.868897 94.6496512,200.051522 102.278852,204.629042 C102.617977,204.831959 102.804085,205.216998 102.752418,205.608802 C102.700752,206.000607 102.421192,206.324239 102.041059,206.432308 C99.8018389,207.08624 88.4472099,210.395529 85.5540583,209.127299 C84.0876665,208.532815 82.324033,205.857641 79.6092264,201.557546 C77.8455929,198.783291 74.8731769,194.146322 73.8031072,193.967977 C73.3576338,194.130032 72.9850116,194.446409 72.7528535,194.859702 C71.812844,196.729835 71.812844,198.934401 72.7528535,200.804534 C72.9113824,201.161224 73.0500951,201.517914 73.1888079,201.874604 C73.3774157,202.372344 73.1390562,202.930169 72.6489942,203.137913 C72.1589321,203.345656 71.5922939,203.12908 71.3657261,202.647432 C71.1873811,202.25111 71.0486684,201.874604 70.9099556,201.517914 C67.640298,193.472575 64.9651237,190.579423 63.6770767,190.579423 L63.6770767,190.579423 C63.4013915,190.560114 63.1341019,190.678909 62.9636969,190.896481 C62.6268231,191.332435 61.67565,193.373494 63.7167089,201.022511 C63.8354045,201.500169 63.5927364,201.993873 63.1420419,202.191661 C62.6908311,202.381083 62.1689105,202.212722 61.9134432,201.795339 C60.2290742,199.060717 57.038681,195.216392 55.2155992,195.434369 C54.6409321,195.434369 54.1257134,196.068484 53.689759,197.138554 C53.2538047,198.208624 53.2339886,200.091154 55.8298985,205.064997 C60.6848446,214.438015 71.1081167,226.228599 73.6643944,226.862714 C76.6764426,227.615726 94.9072606,222.721148 106.420419,219.253329 C106.497199,219.228071 106.57739,219.214706 106.658212,219.213697 L106.678028,219.213697 Z" id="Shape" fill="#231F20"></path>
                <line x1="72.1385542" y1="202.191661" x2="78.42026" y2="211.108909" id="Path" fill="#FFFFFF"></line>
                <path d="M78.3608117,212.099715 C78.0367751,212.108506 77.7305697,211.951669 77.5483513,211.683576 L71.2666455,202.766328 C71.1140833,202.554396 71.0533149,202.289947 71.0980578,202.032676 C71.1428006,201.775404 71.289283,201.546998 71.5044388,201.399017 C71.7144607,201.240858 71.9805791,201.176684 72.2396045,201.221731 C72.4986298,201.266779 72.7274566,201.417031 72.8717502,201.63681 L79.1534559,210.534242 C79.3070214,210.749338 79.3682873,211.016872 79.3236321,211.277361 C79.2789768,211.53785 79.1321017,211.769703 78.9156627,211.92137 C78.7545541,212.038645 78.5600787,212.101155 78.3608117,212.099715 L78.3608117,212.099715 Z" id="Path" fill="#231F20"></path>
                <path d="M62.6268231,201.220672 C64.8225086,204.660552 67.2177522,207.9689 69.8002536,211.128725" id="Path" fill="#FFFFFF"></path>
                <path d="M69.8002536,212.099715 C69.5216868,212.104109 69.2546527,211.988635 69.0670577,211.782657 C66.4400661,208.599161 64.0113128,205.257143 61.7945466,201.775523 C61.4960692,201.32086 61.6198924,200.710588 62.0719721,200.408212 C62.5378895,200.111605 63.1556285,200.243977 63.4590996,200.705453 C65.6235408,204.080293 67.9788841,207.328814 70.5136335,210.435162 C70.8002986,210.71553 70.8851399,211.143272 70.7271871,211.511828 C70.5692343,211.880385 70.2009788,212.113943 69.8002536,212.099715 Z" id="Path" fill="#231F20"></path>
                <polygon id="Path" fill="#FFFFFF" points="62.6664553 329.014743 442.818643 329.014743 503.812619 448.406785 1.67247939 448.406785"></polygon>
                <path d="M503.812619,449.398607 L1.67247939,449.398607 C1.3246599,449.398607 1.00125011,449.219108 0.82038681,448.922004 C0.650922681,448.620523 0.650922681,448.252496 0.82038681,447.951015 L61.8341788,328.558973 C61.9960067,328.226217 62.3361234,328.017509 62.7060875,328.023793 L442.818643,328.023793 C443.188607,328.017509 443.528724,328.226217 443.690552,328.558973 L504.704344,447.951015 C504.873808,448.252496 504.873808,448.620523 504.704344,448.922004 C504.516372,449.231605 504.174444,449.413966 503.812619,449.398607 Z M3.29740013,447.41598 L502.187698,447.41598 L442.204344,330.025365 L63.2807546,330.025365 L3.29740013,447.41598 Z" id="Shape" fill="#D1D3D4"></path>
                <ellipse id="Oval" fill="#FFFFFF" cx="354.854946" cy="380.140298" rx="53.2855105" ry="16.0510463"></ellipse>
                <path d="M354.854946,397.18215 C328.182467,397.18215 300.57863,390.801363 300.57863,380.140298 C300.57863,369.479233 328.182467,363.118263 354.854946,363.118263 C381.527425,363.118263 409.151078,369.479233 409.151078,380.140298 C409.151078,390.801363 381.547242,397.18215 354.854946,397.18215 Z M354.854946,365.099873 C323.565314,365.099873 302.560241,372.867787 302.560241,380.140298 C302.560241,387.412809 323.565314,395.200539 354.854946,395.200539 C386.144578,395.200539 407.169467,387.412809 407.169467,380.140298 C407.169467,372.867787 386.144578,365.099873 354.854946,365.099873 Z" id="Shape" fill="#D1D3D4"></path>
                <polygon id="Path" fill="#FFFFFF" points="97.8202283 382.359702 98.3552632 388.443247 235.264743 408.457514 233.877616 402.076728"></polygon>
                <path d="M235.264743,409.44832 L235.106214,409.44832 L98.1769182,389.473684 C97.72772,389.402674 97.3845412,389.034982 97.3446417,388.581959 L96.7897907,382.498415 C96.7675488,382.197468 96.8758316,381.901495 97.0870323,381.685954 C97.3153604,381.485922 97.6179022,381.392278 97.9193088,381.428345 L233.976696,401.125555 C234.386328,401.18817 234.716227,401.494505 234.808973,401.898383 L236.176284,408.279169 C236.252371,408.597491 236.162975,408.932725 235.938491,409.170894 C235.757297,409.345588 235.516411,409.444777 235.264743,409.44832 L235.264743,409.44832 Z M99.2866202,387.650602 L234.036145,407.347812 L233.104788,403.027901 L98.9101141,383.528852 L99.2866202,387.650602 Z" id="Shape" fill="#231F20"></path>
                <path d="M97.8202283,382.379518 C97.8202283,382.379518 128.971148,355.64759 130.021401,355.9052 C131.071655,356.162809 271.052632,372.907419 271.052632,372.907419 L233.877616,402.076728 L97.8202283,382.379518 Z" id="Path" fill="#FFFFFF"></path>
                <path d="M233.877616,403.067619 L233.738903,403.067619 L97.6815155,383.370323 C97.2911065,383.31925 96.9701891,383.037469 96.8690552,382.656944 C96.7498053,382.291013 96.8679202,381.889422 97.1662968,381.646322 C128.733354,354.577521 129.625079,354.795498 130.239379,354.954027 C132.339886,355.310717 269.784401,371.777901 271.171528,371.93643 C271.573456,371.995465 271.905295,372.281 272.023621,372.669626 C272.12142,373.053526 271.98114,373.458781 271.666931,373.700063 L234.491915,402.869372 C234.314314,403.000799 234.098538,403.070404 233.877616,403.067619 Z M100.158529,381.70577 L233.639822,401.026474 L268.595434,373.620799 C241.407736,370.370958 136.976855,357.767914 130.17993,356.935637 C127.901078,358.223684 111.295181,372.134591 100.158529,381.70577 Z" id="Shape" fill="#231F20"></path>
                <polygon id="Path" fill="#FFFFFF" points="235.264743 408.457514 271.607483 378.990964 271.052632 372.907419 233.877616 402.076728"></polygon>
                <path d="M235.264743,409.44832 C235.153385,409.468796 235.039227,409.468796 234.927869,409.44832 C234.60321,409.331066 234.362977,409.053295 234.293754,408.715124 L232.906627,402.334337 C232.830468,401.963323 232.968151,401.58087 233.263316,401.343532 L270.458148,372.194039 C270.740417,371.962396 271.12878,371.908697 271.463315,372.055056 C271.79785,372.201415 272.021989,372.523083 272.043437,372.887603 L272.598288,378.951332 C272.617624,379.280997 272.486447,379.601651 272.241598,379.82324 L235.879042,409.289791 C235.696601,409.407202 235.481218,409.462784 235.264743,409.44832 Z M234.967502,402.47305 L235.879042,406.674065 L270.577045,378.55501 L270.240171,374.809765 L234.967502,402.47305 Z" id="Shape" fill="#231F20"></path>
                <polygon id="Path" fill="#FFFFFF" points="97.8202283 382.359702 71.5044388 294.21766 215.805327 318.829264 233.877616 402.076728"></polygon>
                <path d="M233.877616,403.067543 L233.738903,403.067543 L97.6815155,383.370323 C97.2985858,383.317423 96.9813884,383.046645 96.8690552,382.67676 L70.5730818,294.534718 C70.4761327,294.204463 70.5504774,293.847609 70.7712429,293.583545 C70.9996026,293.327017 71.3445216,293.207045 71.6827838,293.266487 L215.983672,317.858275 C216.380583,317.93049 216.694078,318.236146 216.776316,318.631103 L234.848605,401.858751 C234.915018,402.153216 234.84357,402.461895 234.654529,402.697232 C234.465487,402.93257 234.179474,403.068892 233.877616,403.067543 L233.877616,403.067543 Z M98.5930564,381.547242 L232.609385,400.94721 L214.97305,319.701173 L72.9113824,295.485891 L98.5930564,381.547242 Z" id="Shape" fill="#231F20"></path>
                <path d="M314.687698,334.345276 L313.419467,334.563253 C309.544942,335.125817 306.015636,337.102228 303.511414,340.111763 C300.672406,344.460231 300.541891,350.041656 303.17454,354.518072 C308.841947,364.723367 322.653773,367.537254 333.25539,368.52806 C334.747537,368.764886 336.27439,368.649524 337.714014,368.191186 C339.106545,367.844788 340.117159,366.640405 340.216508,365.20888 C340.315856,363.777354 339.4813,362.444916 338.149968,361.90948 C337.032645,361.379662 335.833035,361.044575 334.602885,360.918675 C328.023938,359.828789 321.048668,358.937064 315.004756,355.984464 C311.497305,354.201015 306.582911,350.039632 309.059924,345.719721 C309.960671,344.317534 311.257188,343.214116 312.785352,342.549144 C318.849081,339.655992 324.675016,341.85558 330.619848,343.63903 C331.051625,343.792998 331.50952,343.860335 331.967343,343.837191 C333.141603,343.502468 333.886988,342.350509 333.71116,341.1422 C333.512999,338.526474 330.897273,336.802473 328.459892,335.8513 C324.070403,334.192646 319.331919,333.674481 314.687698,334.345276 Z" id="Path" fill="#FFFFFF"></path>
                <path d="M335.098288,369.657578 C334.444356,369.657578 333.810241,369.657578 333.215758,369.657578 C317.045815,368.151554 306.959417,363.395688 302.381896,355.132372 C299.53435,350.324655 299.688332,344.311662 302.778218,339.655992 C305.413593,336.462155 309.129631,334.346763 313.221306,333.71116 L314.548985,333.493183 C319.399053,332.756486 324.357376,333.296028 328.935479,335.058656 C331.01617,335.8513 334.563253,337.714014 334.880311,341.181833 C335.108961,342.912556 333.985276,344.53375 332.284401,344.927077 C331.686098,344.98253 331.083018,344.901216 330.520767,344.689283 L328.955295,344.233513 C323.644578,342.608592 318.611287,341.082752 313.419467,343.579581 C312.068722,344.151035 310.917284,345.109417 310.110178,346.33402 C309.534407,347.264964 309.389869,348.399587 309.713855,349.445149 C310.920882,352.031566 313.036716,354.083925 315.658687,355.211636 C321.01704,357.556449 326.705141,359.060354 332.522194,359.67026 L334.979391,360.066582 C336.306963,360.209575 337.60038,360.578165 338.8039,361.156468 C340.232956,361.861449 341.209388,363.24038 341.399814,364.822448 C341.402522,366.800829 340.154909,368.56497 338.288681,369.221623 C337.264214,369.575251 336.18007,369.723395 335.098288,369.657578 L335.098288,369.657578 Z M314.846227,335.355897 L313.617628,335.573874 C310.008031,336.119305 306.71942,337.957266 304.363507,340.745878 C301.734725,344.776356 301.634728,349.953127 304.105897,354.082118 C308.346544,361.711319 317.977172,366.130311 333.394103,367.576886 C334.719171,367.784999 336.074172,367.690149 337.357324,367.299461 C338.415298,366.951914 339.153734,365.993517 339.220038,364.881896 C339.056826,364.009713 338.480581,363.270938 337.674382,362.900285 C336.6547,362.425726 335.563082,362.124359 334.444356,362.008561 L332.026791,361.632055 C326.000286,360.999364 320.109793,359.42812 314.568802,356.975269 C311.834179,355.588142 308.62397,353.012048 307.692613,350.019816 C307.210218,348.447891 307.426757,346.744454 308.287096,345.343215 C309.282234,343.76133 310.733005,342.517811 312.448478,341.776316 C318.39331,338.982245 323.961636,340.68643 329.411065,342.331167 L330.956722,342.806753 C331.262679,342.912434 331.584201,342.966021 331.907895,342.965282 C332.462746,342.965282 332.839252,342.033925 332.779803,341.340361 C332.601458,338.863348 329.49033,337.37714 328.162651,336.901554 C323.904094,335.271549 319.297336,334.766512 314.786779,335.435162 L314.846227,335.355897 Z" id="Shape" fill="#231F20"></path>
                <path d="M319.661541,323.426601 C319.661541,323.426601 329.569594,373.204661 330.461319,376.196893 C331.353044,379.189125 354.874762,391.455295 373.620799,379.426918 L390.048351,328.539157 L319.661541,323.426601 Z" id="Path" fill="#FFFFFF"></path>
                <path d="M355.251268,385.649176 C349.623938,385.596645 344.052245,384.529297 338.8039,382.498415 C334.68215,380.913126 330.005549,378.356848 329.510146,376.553583 C328.697685,373.561351 319.10669,325.745086 318.690552,323.723843 C318.624874,323.41799 318.713784,323.099397 318.928345,322.87175 C319.131754,322.638823 319.432254,322.514225 319.740805,322.534876 L390.127616,327.647432 C390.430058,327.669598 390.705695,327.829047 390.875689,328.080175 C391.046005,328.331302 391.091312,328.646449 390.999524,328.935479 L374.571972,379.82324 C374.492454,380.040621 374.346952,380.227695 374.155834,380.358275 C368.503849,383.924883 361.933521,385.763749 355.251268,385.649176 L355.251268,385.649176 Z M320.89014,324.496671 C322.455612,332.324033 330.798193,373.283925 331.412492,376.018548 C331.689918,376.692295 335.375713,379.46655 341.915029,381.586874 C348.454344,383.707197 361.235732,386.124762 372.788523,378.852251 L388.641408,329.510146 L320.89014,324.496671 Z" id="Shape" fill="#231F20"></path>
                <ellipse id="Oval" fill="#FFFFFF" transform="translate(354.781230, 324.072606) rotate(-87.709390) translate(-354.781230, -324.072606) " cx="354.78123" cy="324.072606" rx="15.2904358" ry="35.3405404"></ellipse>
                <path d="M357.767914,341.181833 L354.339727,341.181833 C334.008402,340.349556 318.373494,332.561826 318.670736,323.446417 C318.868897,318.948161 322.911382,314.945308 330.084813,312.190869 C338.275771,309.340807 346.951832,308.148523 355.607958,308.683418 C375.939283,309.515694 391.574192,317.303424 391.27695,326.517914 C391.098605,331.01617 387.056119,334.999207 379.882689,337.773462 C372.770805,340.209026 365.2831,341.363045 357.767914,341.181833 Z M352.219404,310.526316 C344.949924,310.389041 337.714763,311.556868 330.857641,313.974318 C324.556119,316.391883 320.949588,319.91915 320.711795,323.466233 C320.394737,331.194515 335.831484,338.387762 354.399176,339.140774 C362.784233,339.661496 371.189404,338.516561 379.129677,335.772036 C385.431198,333.334654 389.03773,329.827204 389.275523,326.28012 C389.592581,318.532023 374.155834,311.358592 355.588142,310.585764 L352.219404,310.526316 Z" id="Shape" fill="#231F20"></path>
            </g>
        </g>
    </g>
</svg>