<?xml version="1.0" encoding="UTF-8"?>
<svg width="82px" height="174px" viewBox="0 0 82 174" version="1.1" xmlns="http://www.w3.org/2000/svg" xmlns:xlink="http://www.w3.org/1999/xlink">
    <title>рука</title>
    <g id="Design" stroke="none" stroke-width="1" fill="none" fill-rule="evenodd">
        <g id="Главная-XL" transform="translate(-799.000000, -850.000000)" fill-rule="nonzero">
            <g id="рука" transform="translate(799.000000, 850.000000)">
                <path d="M62,153.79 L72.8,103.71 L76.4,78.81 C76.4,78.81 50.07,51 42.58,42 C35.09,33 26.75,20 22.69,20.81 C18.63,21.62 17.69,26.16 20.13,31.9 C21.13,34.26 22.68,36.9 23.34,39.32 C23.88,41.32 23.49,46.8 21.55,48.12 C19.22,49.7 17.34,41.6 14.41,42.92 C12.87,43.62 11.23,47.45 12.41,51.67 C13.1202394,53.6973885 14.0279319,55.6500996 15.12,57.5 C17.36,61.39 17.29,63.78 18.66,68.01 C20.03,72.24 19.88,66.54 18.28,70.43 C16.35,75.15 13.66,80.65 13.37,85.83 C12.91,94.11 22.37,107.89 26.29,114.58 C30.21,121.27 21.72,139.69 21.72,139.69 L62,153.79 Z" id="Path" fill="#FFFFFF"></path>
                <path d="M62,154.29 C61.9471842,154.300507 61.8928158,154.300507 61.84,154.29 L21.48,140.14 C21.3483253,140.091496 21.2430931,139.989892 21.19,139.86 C21.1304312,139.73332 21.1304312,139.58668 21.19,139.46 C21.28,139.28 29.49,121.2 25.79,114.81 C25.15,113.71 24.36,112.42 23.5,111 C19.08,103.78 12.41,92.86 12.81,85.79 C13.05,81.32 15.05,76.61 16.81,72.46 C17.13,71.7 17.45,70.95 17.75,70.22 C17.913127,69.7788182 18.1351366,69.3617092 18.41,68.98 C18.31,68.74 18.22,68.46 18.11,68.14 C17.65,66.7 17.35,65.49 17.11,64.33 C16.6459934,62.0147073 15.8191352,59.7872525 14.66,57.73 C13.5517632,55.8220747 12.6275977,53.8130193 11.9,51.73 C10.68,47.22 12.45,43.19 14.21,42.4 C15.97,41.61 17.5,43.6 18.73,45.4 C19.1645122,46.1211666 19.6776473,46.7919314 20.26,47.4 C20.8,47.9 21.07,47.78 21.26,47.64 C22.93,46.51 23.36,41.29 22.84,39.4 C22.3193854,37.7397671 21.650004,36.1299047 20.84,34.59 C20.43,33.74 20.01,32.87 19.66,32.04 C18.08,28.3 17.85,25.04 19.03,22.81 C19.7571627,21.4565639 21.0661955,20.5125852 22.58,20.25 C25.92,19.6 31.17,26.43 37.24,34.35 C39.13,36.81 41.08,39.35 42.96,41.62 C50.35,50.62 76.52,78.17 76.78,78.45 C76.8881671,78.5613898 76.9396998,78.7159879 76.92,78.87 L73.31,103.77 L62.51,153.88 C62.4795108,154.021532 62.387993,154.142335 62.26,154.21 C62.1853409,154.266223 62.0933513,154.294527 62,154.29 Z M22.33,139.35 L61.63,153.13 L72.31,103.61 L75.9,79 C73.64,76.62 49.3,50.9 42.2,42.3 C40.31,40.01 38.35,37.46 36.46,35 C31.08,28 25.51,20.75 22.79,21.28 C21.5706322,21.4546548 20.5060452,22.1965272 19.92,23.28 C18.92,25.2 19.15,28.28 20.59,31.65 C20.93,32.45 21.33,33.28 21.75,34.15 C22.5897152,35.7506711 23.2825521,37.4241902 23.82,39.15 C24.37,41.15 24.04,46.99 21.82,48.49 C21.0982129,48.9814609 20.1202621,48.8380281 19.57,48.16 C18.9273356,47.5057527 18.360427,46.781183 17.88,46 C16.62,44.15 15.65,42.86 14.6,43.34 C13.36,43.9 11.74,47.43 12.85,51.5 C13.5444592,53.4871025 14.4355436,55.399919 15.51,57.21 C16.7118431,59.3500182 17.5722035,61.6645563 18.06,64.07 C18.34,65.22 18.63,66.41 19.06,67.81 C19.15,68.08 19.23,68.3 19.29,68.47 L19.37,68.47 C19.7874466,68.6200511 20.0561489,69.0271758 20.03,69.47 C20.054895,69.7918184 19.8287094,70.0789002 19.51,70.13 C19.3290514,70.1675177 19.1409092,70.1195599 19,70 C18.8923284,70.1998871 18.7987669,70.4070591 18.72,70.62 C18.41,71.35 18.09,72.1 17.77,72.87 C16.04,76.95 14.08,81.57 13.84,85.87 C13.47,92.64 20.04,103.39 24.39,110.51 C25.26,111.94 26.05,113.23 26.69,114.34 C30.32,120.56 23.71,136.28 22.36,139.35 L22.33,139.35 Z" id="Shape" fill="#231F20"></path>
                <rect id="Rectangle" fill="#FFFFFF" transform="translate(41.289205, 56.206633) rotate(-160.680000) translate(-41.289205, -56.206633) " x="16.064205" y="5.92663347" width="50.45" height="100.56" rx="3.22"></rect>
                <path d="M46.5,111.6 C46.0811331,111.6 45.6653476,111.528384 45.27,111.39 L3.73,96.82 L3.73,96.82 C1.79573642,96.1359387 0.777058158,94.0181602 1.45,92.08 L32.6,3.26 C33.2922423,1.33369173 35.4075355,0.3251342 37.34,1 L78.88,15.57 C79.8115467,15.8917408 80.5756774,16.5727597 81.0020917,17.4612794 C81.4285061,18.3497991 81.4817654,19.3719762 81.15,20.3 L50,109.11 C49.6737784,110.041209 48.9900481,110.804108 48.1,111.23 C47.600118,111.468788 47.0539652,111.595085 46.5,111.6 L46.5,111.6 Z M4.06,95.88 L45.6,110.44 C46.2787939,110.682496 47.0263699,110.643505 47.6762542,110.331711 C48.3261386,110.019916 48.82437,109.461208 49.06,108.78 L80.21,20 C80.7032498,18.5863615 79.9613028,17.0398937 78.55,16.54 L37,1.92 C35.5835036,1.42769314 34.0357804,2.17471563 33.54,3.59 L2.4,92.42 C1.90675023,93.8336385 2.6486972,95.3801063 4.06,95.88 L4.06,95.88 Z" id="Shape" fill="#231F20"></path>
                <path d="M50.53,98.29 C50.4737324,98.3003449 50.4162676,98.3003449 50.36,98.29 L7.75,83.35 C7.49050673,83.2560233 7.35623096,82.9695684 7.45,82.71 L33.06,9.71 C33.0995032,9.58284247 33.1900507,9.47780737 33.31,9.42 C33.4361028,9.37498284 33.5738972,9.37498284 33.7,9.42 L76.3,24.36 C76.5595516,24.4542344 76.696963,24.7379226 76.61,25 L51,98 C50.9574928,98.1254666 50.8678342,98.2294705 50.75,98.29 C50.6773153,98.3037932 50.6026847,98.3037932 50.53,98.29 L50.53,98.29 Z M8.53,82.54 L50.19,97.15 L75.5,25.06 L33.84,10.45 L8.53,82.54 Z" id="Shape" fill="#D1D3D4"></path>
                <path d="M29.89,102.59 C29.6146836,102.591564 29.3409997,102.54764 29.08,102.46 L21,99.61 C19.7131315,99.1568477 19.0339581,97.7493503 19.48,96.46 L20.57,93.36 C21.023089,92.0678465 22.4376698,91.3874152 23.73,91.84 L31.83,94.68 C33.1221535,95.133089 33.8025848,96.5476698 33.35,97.84 L32.26,100.94 C31.9098959,101.944612 30.9536749,102.610335 29.89,102.59 L29.89,102.59 Z M22.89,92.7 C22.258588,92.7030218 21.6976407,93.1036984 21.49,93.7 L20.41,96.8 C20.2789753,97.1686057 20.3002804,97.5742341 20.4691987,97.9270857 C20.6381171,98.2799373 20.9407141,98.5509046 21.31,98.68 L21.31,98.68 L29.42,101.52 C30.1874755,101.786969 31.0266629,101.385231 31.3,100.62 L32.39,97.52 C32.6566377,96.7470292 32.2505374,95.9035902 31.48,95.63 L23.38,92.79 C23.2188986,92.7346761 23.0502812,92.704325 22.88,92.7 L22.89,92.7 Z" id="Shape" fill="#D1D3D4"></path>
                <path d="M65,16.5 C64.9470949,16.5095576 64.8929051,16.5095576 64.84,16.5 L52.7,12.25 C52.4405067,12.1560233 52.306231,11.8695684 52.4,11.61 C52.4899206,11.3517972 52.7705636,11.213703 53.03,11.3 L65.17,15.56 C65.4461424,15.6069442 65.6319442,15.8688576 65.585,16.145 C65.5380558,16.4211424 65.2761424,16.6069442 65,16.56 L65,16.5 Z" id="Path" fill="#D1D3D4"></path>
                <path d="M51.25,11.5 L51.08,11.5 L49.46,10.93 C49.2769183,10.8830738 49.1359429,10.7369252 49.0956423,10.5522719 C49.0553418,10.3676186 49.1226044,10.1760221 49.2694858,10.0570816 C49.4163671,9.93814104 49.6177618,9.91218618 49.79,9.99 L51.42,10.56 C51.5986328,10.5903676 51.7474954,10.7137278 51.8105127,10.8836122 C51.87353,11.0534965 51.8411282,11.2440954 51.7255127,11.3836122 C51.6098972,11.5231289 51.4286328,11.5903676 51.25,11.56 L51.25,11.5 Z" id="Path" fill="#D1D3D4"></path>
                <circle id="Oval" fill="#240E8C" cx="41.49" cy="56.25" r="15.51"></circle>
                <path d="M25.82,51.6 C25.2931268,53.3353114 23.7492109,54.5648733 21.94,54.69 C19.7421342,54.8752887 17.5547161,54.2294116 15.81,52.88 C14.8035295,52.1239611 13.9571695,51.1756301 13.32,50.09 C12.2160262,48.4614497 11.9806232,46.3951345 12.69,44.56 C13.97,41.99 18.06,41.56 21.51,43.2 C24.74,44.76 26.45,49.18 25.82,51.6 Z" id="Path" fill="#FFFFFF"></path>
                <path d="M21.12,55.24 C19.085259,55.1849356 17.1206815,54.4845515 15.51,53.24 C14.4518848,52.4428399 13.5586784,51.4477467 12.88,50.31 C11.6831171,48.5400029 11.4468667,46.2899988 12.25,44.31 C13.61,41.57 17.86,40.86 21.73,42.72 C25.13,44.36 27.01,48.97 26.31,51.72 L26.31,51.72 C25.7337696,53.6597644 24.018057,55.0410922 22,55.19 C21.7077303,55.2218924 21.4140012,55.2385816 21.12,55.24 L21.12,55.24 Z M17.37,42.72 C15.45,42.72 13.81,43.44 13.14,44.78 C12.49178,46.4634779 12.720268,48.3588049 13.75,49.84 C14.3540771,50.8676019 15.1562682,51.7649682 16.11,52.48 C17.7498042,53.7561991 19.8090767,54.370055 21.88,54.2 C23.4851957,54.0886215 24.8582622,53.0052482 25.34,51.47 L25.34,51.47 C25.88,49.37 24.43,45.16 21.34,43.65 C20.1032313,43.0459875 18.7463581,42.7281306 17.37,42.72 Z" id="Shape" fill="#231F20"></path>
                <path d="M21,63.37 C21.3422328,64.5921013 21.1064545,65.9036177 20.36,66.93 C19.8553696,67.4972824 19.2253339,67.9389923 18.52,68.22 C16.6439762,69.168368 14.441069,69.2234407 12.52,68.37 C11.4186216,67.7051848 10.4791972,66.8033373 9.77,65.73 C8.47,63.95 7.34,61.87 7.48,59.66 C7.67,56.48 11.26,52.97 14.48,54.59 C17.16,55.92 20.33,60.54 21,63.37 Z" id="Path" fill="#FFFFFF"></path>
                <path d="M15.15,69.49 C14.1489633,69.5011153 13.1603461,69.2676918 12.27,68.81 C11.0955144,68.1163304 10.0964023,67.1616993 9.35,66.02 C7.6,63.63 6.84,61.6 6.96,59.63 C7.19383272,57.4522783 8.43348754,55.5095356 10.31,54.38 C11.6363147,53.5439793 13.3006223,53.4531989 14.71,54.14 C17.52,55.54 20.79,60.32 21.5,63.25 L21.5,63.25 C21.8820923,64.6261631 21.6091339,66.1016138 20.76,67.25 C20.2117894,67.8761493 19.5276984,68.3686949 18.76,68.69 C17.6266112,69.2084509 16.3963074,69.4810944 15.15,69.49 Z M12.78,54.68 C12.074102,54.6859733 11.3829885,54.8829406 10.78,55.25 C9.179796,56.1944489 8.12233973,57.8418544 7.93,59.69 C7.82,61.42 8.52,63.24 10.12,65.43 C10.7879247,66.4410709 11.6683987,67.2942434 12.7,67.93 C14.4919912,68.7275808 16.5497867,68.6650002 18.29,67.76 C18.9305617,67.5156173 19.5032228,67.1212698 19.96,66.61 C20.6074004,65.7069823 20.8028952,64.5561448 20.49,63.49 L20.49,63.49 C19.85,60.81 16.77,56.3 14.24,55.04 C13.7876504,54.8088997 13.2879323,54.6856816 12.78,54.68 Z" id="Shape" fill="#231F20"></path>
                <path d="M16.06,72.09 C16.5556202,72.779101 16.8967154,73.5670307 17.06,74.4 C17.3078297,76.332829 16.410158,78.2335513 14.76,79.27 C13.114196,80.2598311 11.1400891,80.5480219 9.28,80.07 C7.05791044,79.5820001 5.14869314,78.1709976 4.03,76.19 C2.94558135,74.172992 3.00256338,71.7341609 4.18,69.77 C7.41,64.78 13.53,68.43 16.06,72.09 Z" id="Path" fill="#FFFFFF"></path>
                <path d="M11.13,80.79 C10.4734138,80.7869928 9.81926782,80.7098371 9.18,80.56 C6.81623567,80.0355619 4.7872449,78.5301817 3.6,76.42 C2.42016517,74.2476824 2.48492041,71.6117634 3.77,69.5 C4.70052918,67.8911442 6.40192676,66.8831893 8.26,66.84 C11.34,66.75 14.74,69.3 16.47,71.84 L16.47,71.84 C17.0172232,72.5841906 17.3897779,73.4420918 17.56,74.35 C17.8436225,76.4762249 16.8582992,78.571992 15.04,79.71 C13.8694262,80.4425761 12.5106276,80.8178965 11.13,80.79 Z M8.36,67.79 L8.28,67.79 C6.75273923,67.8194064 5.35572671,68.6568526 4.61,69.99 C3.53188424,71.8004963 3.4825381,74.043848 4.48,75.9 C5.52898273,77.7547644 7.31830959,79.0749385 9.4,79.53 C11.1286954,79.9876266 12.9690951,79.7241968 14.5,78.8 C15.969425,77.8634537 16.7766558,76.1713739 16.58,74.44 C16.4258352,73.6778153 16.1085762,72.9580128 15.65,72.33 L15.65,72.33 C14.08,70.11 11.08,67.83 8.36,67.83 L8.36,67.79 Z" id="Shape" fill="#231F20"></path>
                <path d="M72.33,105.12 C72.33,105.12 80.96,79.57 79.76,73.49 C78.56,67.41 76.64,42.9 74.17,41.87 C71.7,40.84 66.44,47.6 66.27,55.2 C66.1642483,59.6825114 66.7477197,64.1546678 68,68.46 C68,68.46 59.54,71.83 57.87,92.26" id="Path" fill="#FFFFFF"></path>
                <path d="M72.33,105.62 L72.17,105.62 C71.9104484,105.525766 71.773037,105.242077 71.86,104.98 C71.95,104.73 80.43,79.49 79.27,73.6 C78.9,71.71 78.46,68.12 77.96,63.95 C77.07,56.62 75.42,42.95 73.96,42.35 C73.4044559,42.2258874 72.8228904,42.3703527 72.39,42.74 C70.11,44.22 66.89,49.38 66.76,55.23 C66.6474569,59.6522099 67.2071719,64.0658662 68.42,68.32 C68.4969648,68.5704787 68.3715895,68.8385225 68.13,68.94 C68.05,68.94 59.92,72.52 58.31,92.32 C58.2879085,92.5961423 58.0461423,92.8020912 57.77,92.7799998 C57.4938577,92.7579085 57.2879087,92.5161423 57.31,92.24 C58.79,74.08 65.56,69.24 67.31,68.24 C66.1571463,64.0059322 65.624932,59.6269537 65.73,55.24 C65.86,49.38 68.99,43.76 71.82,41.93 C72.5136964,41.3467024 73.4618328,41.1684528 74.32,41.46 C76.01,42.16 77.11,48.94 78.91,63.86 C79.41,68.01 79.85,71.59 80.21,73.44 C81.42,79.59 73.12,104.28 72.77,105.33 C72.6903098,105.502383 72.5198392,105.614739 72.33,105.62 Z" id="Path" fill="#231F20"></path>
                <path d="M33.51,62.38 C32.9171061,62.3881366 32.3511668,62.1327717 31.9649623,61.6828435 C31.5787578,61.2329153 31.4121075,60.6348131 31.51,60.05 L32.98,51.19 C33.0581111,50.4518538 33.5385994,49.8176791 34.2280671,49.5427328 C34.9175348,49.2677865 35.7025658,49.3972966 36.2671831,49.8791352 C36.8318005,50.3609737 37.0831258,51.1158791 36.92,51.84 L35.98,57.54 L49.82,53.37 C50.8776253,53.044152 51.999152,53.6373747 52.325,54.695 C52.650848,55.7526253 52.0576253,56.874152 51,57.2 L34.08,62.29 C33.8953497,62.3473968 33.7033517,62.3777123 33.51,62.38 L33.51,62.38 Z" id="Path" fill="#FFFFFF"></path>
                <polygon id="Path" fill="#231F20" points="60.82 173.48 68.85 132.95 24.46 120.73 7.55 173.48"></polygon>
                <path d="M60.82,174 L7.54,174 C7.38298783,173.998464 7.23543582,173.924688 7.14,173.8 C7.04873038,173.668737 7.0229157,173.502785 7.07,173.35 L24,120.58 C24.0857382,120.327397 24.3516541,120.183541 24.61,120.25 L69,132.47 C69.2538407,132.538597 69.4111767,132.792082 69.36,133.05 L61.36,173.58 C61.31451,173.837866 61.0811295,174.019385 60.82,174 L60.82,174 Z M8.23,173 L60.41,173 L68.27,133.32 L24.79,121.32 L8.23,173 Z" id="Shape" fill="#231F20"></path>
            </g>
        </g>
    </g>
</svg>