<svg xmlns="http://www.w3.org/2000/svg" width="18" height="18" viewBox="0 0 18 18">
    <g>
        <g>
            <path fill="#9e9e9f"
                  d="M7.25 12.443a5.199 5.199 0 0 1-5.194-5.194A5.199 5.199 0 0 1 7.25 2.056a5.199 5.199 0 0 1 5.194 5.193 5.199 5.199 0 0 1-5.194 5.194zM17.1 16.12l-4.73-4.73a6.552 6.552 0 0 0 1.468-4.137A6.592 6.592 0 0 0 7.254.67 6.592 6.592 0 0 0 .67 7.254a6.592 6.592 0 0 0 6.584 6.585 6.552 6.552 0 0 0 4.137-1.468l4.73 4.73a.691.691 0 0 0 .98 0 .692.692 0 0 0 0-.98z"/>
        </g>
    </g>
</svg>